[gd_scene load_steps=4 format=3 uid="uid://v68ddausp27a"]

[ext_resource type="PackedScene" uid="uid://b1fipg87uamtt" path="res://cube/cube.tscn" id="1_m0ixt"]
[ext_resource type="Environment" uid="uid://c51a1lyms0ee2" path="res://world_env.tres" id="2_8jlss"]

[sub_resource type="CameraAttributesPractical" id="CameraAttributesPractical_rq0cu"]
dof_blur_far_enabled = true
dof_blur_far_distance = 0.5
dof_blur_far_transition = 0.05

[node name="Playground" type="Node3D"]

[node name="Cube" parent="." instance=ExtResource("1_m0ixt")]

[node name="CameraPivot" type="Node3D" parent="."]
transform = Transform3D(0.707107, 0.5, -0.5, 0, 0.707107, 0.707107, 0.707107, -0.5, 0.5, 0, 0, 0)

[node name="Camera3D" type="Camera3D" parent="CameraPivot"]
transform = Transform3D(1, 0, 0, 0, 1, 0, 0, 0, 1, 0, 0, 0.5)
environment = ExtResource("2_8jlss")
attributes = SubResource("CameraAttributesPractical_rq0cu")
fov = 15.0
size = 0.15

[node name="DirectionalLight3D" type="DirectionalLight3D" parent="."]
transform = Transform3D(0.993601, -0.0535818, 0.099425, -0.0527608, 0.558151, 0.82806, -0.0998632, -0.828008, 0.551752, 1.26354, 1, 1)
